…
With the settings done, it is possible to list all `assets` (e.g form,
project, etc) for the account associated to the token and url supplied.

### Access data

``` r
library("dplyr")
l <- kobo_asset_list()
l
# A tibble: 24 x 7
   uid     name     asset_type owner_username date_created
   <chr>   <chr>    <chr>      <chr>          <dttm>
 1 b9kgvd… Proj_A1… survey     xxxxxxxxxxxxx… 2020-04-27 20:34:23
 2 aRFJMp… Proj_A2… survey     xxxxxxxxxxxxx… 2020-04-27 21:21:12
 3 a6qMG7… Proj_A3… survey     xxxxxxxxxxxxx… 2021-05-25 16:59:08
 4 azhrVs… Proj_A4… survey     xxxxxxxxxxxxx… 2021-05-25 13:59:46
 5 aReR58… Proj_A5… survey     xxxxxxxxxxxxx… 2021-06-07 09:15:53
 6 aWaoqy… Proj_A6… survey     xxxxxxxxxxxxx… 2021-05-29 10:46:09
 7 aABU3C… Proj_A7… survey     xxxxxxxxxxxxx… 2020-11-28 15:00:10
 8 aaznyX… Proj_A9… survey     xxxxxxxxxxxxx… 2020-11-28 14:28:48
 9 aCVr2Q… Proj_A9… survey     xxxxxxxxxxxxx… 2021-05-25 13:30:24
10 aPxNao… Proj_A10… survey    xxxxxxxxxxxxx… 2020-04-27 11:37:34
# … with 14 more rows, and 3 more variables:
#   date_modified <dttm>, submissions <int>
…
